tomet123,c5f6fc00-9ad8-3b3f-b547-7b29b060844d
ghasty_,47ef1b5a-0985-32e3-86c2-f14572960dfa
davo8888,6f3797eb-4dcb-3bbe-8141-cdda4709ed57
wyxarcz,dde7aea6-3404-3fb1-a161-f830dd3c3e7b
twitchreplays,0d13c390-b512-3f10-baa3-9b301fc992d1
kunadusan,da6a582f-10df-346b-aca9-8a2d2ac0082e
